<svg xmlns="http://www.w3.org/2000/svg" width="31" height="20" viewBox="0 0 31 20">
    <g fill="none" fill-rule="evenodd">
        <path fill="#F4B0B5" d="M.479 17.001a3.609 3.609 0 0 0 1.966-.534c.448-.286.972-.43 1.504-.417a2.674 2.674 0 0 1 1.504.417c.59.363 1.273.548 1.967.534a3.61 3.61 0 0 0 1.966-.534 2.67 2.67 0 0 1 1.504-.417 2.677 2.677 0 0 1 1.504.417 3.887 3.887 0 0 0 3.935 0 2.926 2.926 0 0 1 3.01 0 3.89 3.89 0 0 0 3.935 0 2.929 2.929 0 0 1 3.01 0c.591.363 1.275.549 1.969.534a.477.477 0 0 0 .479-.475.477.477 0 0 0-.48-.476 2.678 2.678 0 0 1-1.505-.417 3.891 3.891 0 0 0-3.936 0 2.927 2.927 0 0 1-3.01 0 3.888 3.888 0 0 0-3.935 0 2.925 2.925 0 0 1-3.01 0 3.61 3.61 0 0 0-1.966-.534 3.61 3.61 0 0 0-1.967.534 2.67 2.67 0 0 1-1.503.417 2.672 2.672 0 0 1-1.504-.417 3.61 3.61 0 0 0-1.967-.534 3.61 3.61 0 0 0-1.967.534c-.448.286-.971.43-1.503.417a.477.477 0 0 0-.479.476c0 .262.214.475.479.475z"/>
        <path fill="#FFF" d="M26.924 12.712c-1.625-.241-2.796-.157-3.513.253-.95.555-2.139.555-3.089 0a4.082 4.082 0 0 0-4.039 0 3.07 3.07 0 0 1-3.088 0 3.778 3.778 0 0 0-2.019-.535 3.78 3.78 0 0 0-2.018.535c-.46.285-.997.43-1.543.416a2.796 2.796 0 0 1-1.544-.416 3.778 3.778 0 0 0-2.018-.535 3.779 3.779 0 0 0-2.018.535c-.46.285-.998.43-1.544.416a.484.484 0 0 0-.491.476c0 .263.22.476.491.476a3.778 3.778 0 0 0 2.019-.535c.46-.285.997-.43 1.543-.417a2.798 2.798 0 0 1 1.543.417 3.778 3.778 0 0 0 2.019.535 3.779 3.779 0 0 0 2.018-.535c.46-.285.997-.43 1.543-.417a2.801 2.801 0 0 1 1.545.417 4.08 4.08 0 0 0 4.037 0 3.07 3.07 0 0 1 3.09 0 4.083 4.083 0 0 0 4.038 0c.503-.294 1.329-.385 2.477-.272l.56-.814z"/>
        <path fill="#F4B0B5" d="M.479 19.67a3.609 3.609 0 0 0 1.966-.535c.448-.285.972-.43 1.504-.416a2.674 2.674 0 0 1 1.504.416c.59.363 1.273.549 1.967.535a3.61 3.61 0 0 0 1.966-.535 2.67 2.67 0 0 1 1.504-.416 2.677 2.677 0 0 1 1.504.416 3.887 3.887 0 0 0 3.935 0 2.926 2.926 0 0 1 3.01 0 3.89 3.89 0 0 0 3.935 0 2.929 2.929 0 0 1 3.01 0c.591.364 1.275.55 1.969.535a.477.477 0 0 0 .479-.476.477.477 0 0 0-.48-.475 2.678 2.678 0 0 1-1.505-.417 3.891 3.891 0 0 0-3.936 0 2.927 2.927 0 0 1-3.01 0 3.888 3.888 0 0 0-3.935 0 2.925 2.925 0 0 1-3.01 0 3.61 3.61 0 0 0-1.966-.534 3.61 3.61 0 0 0-1.967.534 2.67 2.67 0 0 1-1.503.417 2.672 2.672 0 0 1-1.504-.417 3.61 3.61 0 0 0-1.967-.534 3.61 3.61 0 0 0-1.967.534c-.448.285-.971.43-1.503.417a.477.477 0 0 0-.479.475c0 .263.214.476.479.476z"/>
        <path fill="#E22D3A" d="M0 13.926c.059-.022 2.727-.295 2.786-.317l.172-.07c.174-.072.357-.134.545-.185l.128-.033c.045-.012.09-.022.137-.03a.647.647 0 0 1 .084-.014l.123-.022c.103-.016.209-.029.314-.036l.162-.011c.113-.007.231-.011.359-.011a4.7 4.7 0 0 1 2.014.408c.46.219.997.33 1.543.32a3.483 3.483 0 0 0 1.548-.32 4.698 4.698 0 0 1 2.014-.408 4.726 4.726 0 0 1 2.02.408c.949.428 2.14.428 3.09 0 1.244-.544 2.789-.544 4.033 0 .46.219.997.33 1.543.32a3.512 3.512 0 0 0 1.547-.32c.079-.029.158-.062.241-.095.084-.032.172-.065.266-.094.093-.03.191-.059.3-.088a6.033 6.033 0 0 1 .344-.07 5.863 5.863 0 0 1 1.213-.05l4.096-4.749H1.512L0 13.926z"/>
        <path fill="#E22D3A" fill-rule="nonzero" d="M23.273 4.646c.652 0 1.454.381 1.793.85l2.04 2.836c.339.47-.108.85-.998.85H4.892c-.89 0-1.337-.38-.999-.85l2.041-2.835c.339-.47 1.141-.85 1.793-.85h15.546zM15.11 5.928h-4.532V8.49h4.532V5.928zm5.287 0h-4.532V8.49h4.532V5.928zm2.2 0h-1.445V8.49h4.532l-.343-.776a3 3 0 0 0-2.744-1.786zm-12.774 0H8.378a3 3 0 0 0-2.744 1.786l-.343.776h4.532V5.928z"/>
        <path fill="#E22D3A" fill-rule="nonzero" d="M14.366 3.134h8.317v2.268h-8.317z"/>
        <path fill="#E22D3A" fill-rule="nonzero" d="M19.993.866l1.178 3.024h-1.62l-.15-.441h-1.255l.87-1.13-.495-1.453h1.472z"/>
    </g>
</svg>
