<svg xmlns="http://www.w3.org/2000/svg" xmlns:xlink="http://www.w3.org/1999/xlink" width="77" height="77" viewBox="0 0 77 77">
    <defs>
        <circle id="b" cx="32.5" cy="32.5" r="32.5"/>
        <filter id="a" width="127.7%" height="127.7%" x="-13.8%" y="-13.8%" filterUnits="objectBoundingBox">
            <feOffset in="SourceAlpha" result="shadowOffsetOuter1"/>
            <feGaussianBlur in="shadowOffsetOuter1" result="shadowBlurOuter1" stdDeviation="3"/>
            <feColorMatrix in="shadowBlurOuter1" values="0 0 0 0 0.156862745 0 0 0 0 0.239215686 0 0 0 0 0.321568627 0 0 0 0.1 0"/>
        </filter>
    </defs>
    <g fill="none" fill-rule="evenodd">
        <g transform="translate(6 6)">
            <use fill="#000" filter="url(#a)" xlink:href="#b"/>
            <use fill="#FFF" xlink:href="#b"/>
        </g>
        <g fill-rule="nonzero">
            <path fill="#F4B0B5" d="M39 21.007a.937.937 0 0 0-.938.937v2.813a.937.937 0 1 0 1.876 0v-2.813a.937.937 0 0 0-.938-.937z"/>
            <path fill="#E22D3A" d="M34.038 26.907l-1.875-1.875a.937.937 0 1 0-1.326 1.325l1.875 1.875a.937.937 0 1 0 1.326-1.325zM47.163 25.032a.937.937 0 0 0-1.326 0l-1.875 1.875a.937.937 0 1 0 1.326 1.325l1.875-1.875a.937.937 0 0 0 0-1.325z"/>
            <path fill="#F4B0B5" d="M54.063 34.132h-2.876v13.125h2.876c.518 0 .937-.42.937-.938V35.07a.937.937 0 0 0-.938-.937zM23.938 34.132a.937.937 0 0 0-.938.937v11.25c0 .519.42.938.938.938h2.875V34.132h-2.875z"/>
            <path fill="#E22D3A" d="M38.284 35.07c-.715 0-1.358.397-1.677 1.036l-2.854 5.709c.478.21.983.316 1.5.316a3.728 3.728 0 0 0 3.351-2.077l.618-1.235h1.814c.494 0 .977.2 1.326.55l6.95 6.95V35.07H38.285z"/>
            <path fill="#E22D3A" d="M41.036 40.694h-.655l-.055.109c-.885 1.77-2.612 3.021-4.586 3.183-1.452.118-2.458-.3-3.651-.842a.943.943 0 0 1-.458-1.277l3.298-6.599a3.75 3.75 0 0 1 3.355-2.074h4.046c.26-.575.42-1.203.42-1.875a.937.937 0 0 0-.938-.937h-7.278c-1.066 0-2.04.602-2.516 1.555l-.838 1.676a.938.938 0 0 1-.84.519h-1.653v13.125h4.3l2.656 2.656a2.78 2.78 0 0 0 2.835.693l8.006-2.517a2.712 2.712 0 0 0 1.211-.735l-6.659-6.66z"/>
        </g>
    </g>
</svg>
