<svg xmlns="http://www.w3.org/2000/svg" width="17" height="17" viewBox="0 0 17 17">
    <g fill="none" fill-rule="nonzero">
        <path fill="#E22D3A" d="M4.326 9.732a.556.556 0 0 0-.393.163l-2.031 2.03V10.29a.557.557 0 0 0-.557-.557H.113V.113H8.54v9.619H4.326zm12.56 4.174h-1.231a.557.557 0 0 0-.557.556V16.1l-2.03-2.031a.557.557 0 0 0-.394-.163H8.46v-3.06h.636c.308 0 .557-.25.557-.557V4.287h7.234v9.619z"/>
        <path fill="#FFF" d="M6.87 7.37a5.174 5.174 0 0 1-1.734-.898A6.646 6.646 0 0 0 6.568 3.69h.143a.557.557 0 0 0 0-1.114H4.883v-.635a.557.557 0 0 0-1.113 0v.635H1.942a.557.557 0 0 0 0 1.114h3.474a5.47 5.47 0 0 1-1.077 2 5.162 5.162 0 0 1-.326-.444l-.414-.63a.557.557 0 1 0-.93.611l.413.63c.142.216.292.415.447.599a5.983 5.983 0 0 1-1.763.918.557.557 0 0 0 .175 1.086c.175 0 1.354-.384 2.387-1.214 1.088.901 2.186 1.214 2.384 1.214a.557.557 0 0 0 .157-1.09zM10.75 12.021c.298.075.6-.107.675-.405l.193-.77h2.112l.192.77a.557.557 0 1 0 1.08-.27l-1.048-4.192a1.318 1.318 0 1 0-2.562 0l-1.047 4.192c-.075.298.107.6.405.675zm1.723-4.597a.206.206 0 0 1 .401 0l.577 2.308h-1.555l.577-2.308z"/>
    </g>
</svg>
