<svg xmlns="http://www.w3.org/2000/svg" width="12" height="25" viewBox="0 0 12 25">
    <g fill="none" fill-rule="nonzero" transform="translate(0 .866)">
        <path fill="#F4B0B5" d="M.213 20.54c-.324.728-.307 1.626.25 2.166.475.46 1.321.4 1.646-.327C2.781 20.87 4 19.736 4 19.736s-.449-1.3-.661-3.736c0 0-2.361 2.825-3.126 4.54z"/>
        <path fill="#E22D3A" d="M11.56 9.204C9.96 7.78 8.244 6.5 6.366 5.471a2.325 2.325 0 0 0-.677-.353 1.373 1.373 0 0 0-.477-.103 2.025 2.025 0 0 0-.752.047c-.624.168-1.046.55-1.285 1.037-1.157 1.353-2.123 2.823-2.99 4.377-.86 1.542 1.498 2.92 2.358 1.38.27-.481.546-.957.835-1.423l.748 5.052c.05.342.212.636.439.875.362 2.397 1.027 4.762 2.076 6.938.765 1.588 3.12.2 2.358-1.38-.783-1.626-1.307-3.426-1.63-5.241.71-.495.966-1.385.834-2.286l-.74-4.99a27.1 27.1 0 0 1 2.162 1.738c1.314 1.168 3.253-.76 1.933-1.935z"/>
        <circle cx="5" cy="2" r="2" fill="#E22D3A"/>
    </g>
</svg>
